{
    "version": "1.0",
    "options" : {
    },
    "datasinks": [
        {
	        "name": "Console",
            "sinktype": "ConsoleSink"
        },
	    {
            "name": "File",
            "sinktype": "CSVSink",
            "directory": "myOutputData"
        },
        {
            "name": "db",
            "sinktype": "InfluxDBSink",
            "host": "127.0.0.1",
            "port": 8086,
            "database": "dcsDB",
            "username": "userName",
            "password": "password",
	        "precision": 5
        }
    ],
    "datastreams": [
	    {
            "name": "PowerSupplies",
	        "sinks": ["Console", "db"]
	    },
	    {
            "name": "Climate",
	        "sinks": ["Console"]
	    }
    ],
    "devices": [
        {
            "name": "PS",
            "hw-type": "PS",
            "hw-model": "RigolDP832",
            "communication": {
                "protocol": "CharDeviceCom",
                "port": "/dev/usbtmc0"
            }
        },
        {
            "name": "PS2",
            "hw-type": "PS",
            "hw-model": "AgilentPs",
            "communication": {
                "protocol": "GPIBSerialCom",
                "port": "/dev/ttyUSB1",
                "gpib_addr": 3
            }
	    }
    ],
    "channels": [
        {
	        "name": "low-voltage",
	        "hw-type" : "PS",
	        "device": "PS",
	        "channel" : 1,
	        "program": {
		        "maxvoltage": 5
            }
	    },
        { 
	        "name": "peltier",
	        "hw-type" : "PS",
	        "device": "PS",
	        "channel" : 2
	    },
	    {
            "name": "low-voltage_modA",
	        "hw-type" : "PS",	    
	        "device": "PS2",
	        "channel" : 1
	    },
        {
	        "name": "low-voltage_modB",
	        "hw-type" : "PS",
	        "device": "PS2",
	        "channel" : 2
	    },
        {
	        "name": "low-voltage_modC",
	        "hw-type" : "PS",	    
	        "device": "PS2",
	        "channel" : 3
	    }
    ]
}
